{
  "images" : [
    {
      "resizing" : {
        "mode" : "9-part",
        "center" : {
          "mode" : "tile",
          "width" : 1,
          "height" : 1
        },
        "cap-insets" : {
          "bottom" : 2,
          "top" : 2,
          "right" : 2,
          "left" : 2
        }
      },
      "idiom" : "universal",
      "filename" : "home_multi_switch_background.png",
      "scale" : "1x"
    },
    {
      "resizing" : {
        "mode" : "9-part",
        "center" : {
          "mode" : "tile",
          "width" : 1,
          "height" : 1
        },
        "cap-insets" : {
          "bottom" : 27,
          "top" : 27,
          "right" : 63,
          "left" : 62
        }
      },
      "idiom" : "universal",
      "filename" : "home_multi_switch_background@2x.png",
      "scale" : "2x"
    },
    {
      "resizing" : {
        "mode" : "9-part",
        "center" : {
          "mode" : "tile",
          "width" : 1,
          "height" : 1
        },
        "cap-insets" : {
          "bottom" : 5,
          "top" : 5,
          "right" : 5,
          "left" : 5
        }
      },
      "idiom" : "universal",
      "filename" : "home_multi_switch_background@3x.png",
      "scale" : "3x"
    }
  ],
  "info" : {
    "version" : 1,
    "author" : "xcode"
  }
}