{
  "images" : [
    {
      "resizing" : {
        "mode" : "9-part",
        "center" : {
          "mode" : "tile",
          "width" : 1,
          "height" : 1
        },
        "cap-insets" : {
          "bottom" : 23,
          "top" : 22,
          "right" : 22,
          "left" : 22
        }
      },
      "idiom" : "universal",
      "filename" : "group_button_bottom.png",
      "scale" : "1x"
    },
    {
      "resizing" : {
        "mode" : "9-part",
        "center" : {
          "mode" : "tile",
          "width" : 1,
          "height" : 1
        },
        "cap-insets" : {
          "bottom" : 45,
          "top" : 45,
          "right" : 45,
          "left" : 45
        }
      },
      "idiom" : "universal",
      "filename" : "group_button_bottom@2x.png",
      "scale" : "2x"
    },
    {
      "resizing" : {
        "mode" : "9-part",
        "center" : {
          "mode" : "tile",
          "width" : 1,
          "height" : 1
        },
        "cap-insets" : {
          "bottom" : 68,
          "top" : 68,
          "right" : 67,
          "left" : 67
        }
      },
      "idiom" : "universal",
      "filename" : "group_button_bottom@3x.png",
      "scale" : "3x"
    }
  ],
  "info" : {
    "version" : 1,
    "author" : "xcode"
  }
}